Histogramme des distances au transect et cartes d’occurrence
…
Léa Pautrel

Importation des données
Dates des sessions

Histogramme des distances au transect

Cartes d’occurrences

Importation des données

Dates des sessions

## # A tibble: 24 x 2
##    session date      
##    <fct>   <date>    
##  1 1       2019-02-12
##  2 1       2019-02-13
##  3 1       2019-02-14
##  4 1       2019-02-15
##  5 1       2019-02-26
##  6 1       2019-02-27
##  7 2       2019-05-30
##  8 2       2019-05-31
##  9 2       2019-06-01
## 10 2       2019-06-02
## # ... with 14 more rows
…
